<?xml version="1.0" encoding="utf-8"?>
<!-- Generator: Adobe Illustrator 19.0.0, SVG Export Plug-In . SVG Version: 6.00 Build 0)  -->
<svg version="1.1" id="Layer_1" xmlns="http://www.w3.org/2000/svg" xmlns:xlink="http://www.w3.org/1999/xlink" x="0px" y="0px"
	 viewBox="0 0 869.9 234.6" style="enable-background:new 0 0 869.9 234.6;" xml:space="preserve">
<style type="text/css">
	.st0{fill:#FFFFFF;}
</style>
<g>
	<path class="st0" d="M87.6,234.6c-0.5,0-1.1,0-1.6-0.1c-0.3,0-0.6-0.2-0.7-0.5s-0.2-0.6-0.1-0.9c2.3-6,5.2-11.9,8.1-17.6
		c1.3-2.7,2.7-5.5,4-8.3c5.7-12.1,12.8-25.3,25.3-29.4c0.8-1.2,1.6-2.4,2.3-3.5c1.8-2.7,3.9-5.5,6.2-8l-3,0c-2.9,0-3.6,0.6-4.7,1.5
		c-1.1,0.9-2.5,2.1-5.8,2.9c-7.2,1.8-18.6,6-25.5,9c-4.7,2.1-8.4,3.3-12.7,4.8c-1.8,0.6-3.6,1.2-5.7,2c-9.2,3.3-16.8,6-24.3,9.1
		c-1.1,2.4-2.3,4.8-3.7,7c-4,6.1-7.4,10.3-17.7,13c-2.5,0.7-7,1.3-18.1-0.6c-1.5-0.3-2.8-0.8-4.1-1.5c-1.6-1-3.3-2.2-3.9-4.1
		c-0.4-1.4-0.2-2.8,0.6-3.8c0.9-1.1,2.2-1.8,3.8-1.7c3.2,0.1,5.9-0.4,8.8-1c0.5-0.1,1-0.2,1.6-0.3c-2.5-1.8-4.4-4.3-6-6.4
		c-1.4-1.9-2.8-3.1-4.3-4.4c-1.5-1.3-3-2.7-4.5-4.7c-2-2.6-2.6-7.6-0.3-10.5c0.3-0.4,0.8-0.5,1.2-0.3c2.5,1,4.8,2.1,7.1,3.1
		c3.9,1.8,7.5,3.4,11.6,4.9c3.5,1.2,7.3,1.7,11,1.5c0.2-0.4,0.5-0.8,0.7-1.1c11.9-17.2,27.5-31.4,45.3-41.1l0.9-0.5
		c5.7-3.1,11.5-6.3,15.7-11c-5.9,0.8-11.4,1.1-14.1,0c-7.5-3.1-6.8-12-6.1-19.9c0.1-0.6,0.1-1.2,0.1-1.8c0-0.5-0.6-2.6-1.1-4.2
		c-0.8-2.8-1.2-4.3-1.3-5.2c-1.5-1.5-2.5-3.3-2.6-5.2c-0.1-1.6,0.4-4,3.2-6c1.7-1.2,3.8-2,6.2-2.1c1.4-0.1,2.9-0.2,4.5-0.4
		c6.6-0.6,14-1.2,19.9,0.5c1.8,0.6,4.1,1.5,4.9,3.5c0.8,1.9,0.9,6.8,0.2,8.8c-0.9,2.6-1.6,4.9-1.8,6.9c2.9-5.1,6.2-7.7,10-7.8
		c2.8,0,5.2,1,6.8,3c1.6,2.1,2.1,5,1.3,8c-0.8,3.1-3.1,5.4-6.3,6.4c-3.7,1.2-8,0.4-10.9-2c-0.6-0.5-1.2-1.1-1.6-1.7
		c-1.1,2.4-2.1,4.9-3.1,7.4l-0.4,1c-1.1,2.7-2.1,5.4-3.6,8c1.3-0.2,2.6-0.4,3.8-0.6c3.1-0.5,5.7-0.9,7.4-1c4.1-0.3,6.6-0.2,8.8,0
		c2.8,0.2,5.2,0.3,10.3-0.5c0.9-0.1,1.8-0.3,2.8-0.4c-0.8-1.1-1.4-2.2-1.6-3.4c-0.4-2.6,0.5-5.4,3-8.6c0.6-0.8,1.3-2,2-3.2
		c1.1-1.9,2.2-3.8,3.4-5c4.1-3.9,4.1-8.7,4.1-14.2c0-2.5,0-5.1,0.4-7.8c0.6-4.4,1.9-9.8,6-13.2c1.2-1,2.9-2,4.9-2.7
		c-6.3-8.9-9.8-19.7-9.9-30.7c0-3.8,1.1-5.4,4.9-7.1c5.5-2.5,8.1-3.4,12.5-4.3c0.7-0.1,1.4-0.3,2.2-0.5c4.9-1.1,10.6-2.4,13.7,0.4
		c1,0.8,1.3,2.5,1.1,4.9c0,0.5,0,1,0,1.5c0.1,1.3,0.2,2.9-1.3,3.7c-2.9,1.5-9,3.2-12.1,3.9c-2.1,0.5-4,1.9-4.9,3.7
		c-1,1.9-0.2,2.9,1,4.5c1.8,2.1,3.6,4.3,5.7,6.2c0.1-0.2,0.3-0.4,0.5-0.6c1.1-1.1,2.3-2.1,3.5-3c1.5-1.2,3-2.4,4.1-3.8
		c3.5-4.3,3.7-10.3,4-16.2c0.1-1.7,0.1-3.5,0.3-5.2c0.8-8.3,3.1-18.8,10.1-21.6c5.8-2.4,10.4-1,13.1,0.5c1.1,0.6,2,1.3,2.9,2.2
		c0.9,0,1.8,0,2.6,0.2c5.9,1,8.7,6.2,7.9,14.1c-0.5,4.9-2.7,9.1-4.7,13.2c-1.3,2.6-2.6,5.2-3.5,8c-4.1,12.6-2.6,26,3.9,36.1
		c0.5,0,1,0.1,1.5,0.1c-0.1-0.1-0.1-0.3-0.2-0.4c-1.9-4.1-3.9-8.4-4.7-13c-1.4-8.6,1.8-17.1,4.9-25.2c3.3-8.6,6.4-16.7,4.6-25.1
		c-0.2-1.1-1.3-2.6-2.3-4.1c-1.9-2.7-3.8-5.5-2.3-7.8c1-1.5,2.6-2.5,4.9-2.9c5.3-1,12.7,1.3,14.5,2.6c7.3,5.2,11.6,15.8,10.1,25.3
		c-0.8,5.1-4.3,8.9-7.6,12.6c-1.6,1.7-3.2,3.5-4.5,5.3c-4.2,5.9-5.5,14-3.4,20.9c0.4,1.4,0.9,2.7,1.5,4c0.8,2.1,1.7,4.2,2.1,6.5
		c0.1,0.4,0.2,0.8,0.3,1.3c0.9-0.2,1.6-0.7,2-1.4c0.7-1,0.6-2.5,0.4-3.7c-0.4-2.8-1.4-5.3-2.3-7.7c-1.8-4.6-3.5-8.9-0.9-14.5
		c0.1-0.2,0.2-0.6,0.4-1c1.1-3,1.9-4.5,3-4.8c1.8-0.5,4.4-0.2,6.5,4.6c2.9,6.6,6.1,21.6,7,27.7c1.3,8.1-0.7,10.2-7.1,14.6
		c-2.4,1.6-5.1,2.7-8,3.3l-0.4,0.1c-9,1.7-18.3,3.3-27,6.3c-0.6,1.5-1.3,2.9-2,4.1l-17.9,34.3c0.5,3.4,1.2,6.7,2.2,10
		c13,43.6,29.4,60.4,62.6,64.2c33.6,3.8,93.3-0.8,127.6-10c45.9-12.2,89.3-29.1,131.2-45.4c46.3-18,94.2-36.6,145-48.7
		c57-13.6,112-17.4,168.1-11.8c17,1.7,33.7,5.7,47.3,11.3c0.5,0.2,0.8,0.8,0.5,1.3c-0.2,0.5-0.8,0.8-1.3,0.5
		c-13.4-5.5-30-9.5-46.7-11.2c-55.9-5.6-110.7-1.8-167.5,11.7c-50.7,12.1-98.5,30.6-144.7,48.6c-42,16.3-85.4,33.2-131.5,45.4
		c-34.5,9.2-94.5,13.9-128.4,10c-34.2-3.9-51-21-64.3-65.6c-0.7-2.5-1.3-5-1.8-7.5c-5.8,12-7.6,25.6-5.1,38.4c1.7,8.5,4,14.1,8.1,22
		c5.5,10.7,7,19.5,4.8,27c-0.1,0.4-0.4,0.7-0.8,0.7c-0.4,0-0.8-0.1-1-0.5c-9.4-16-16.7-33.3-21.5-51.2l-0.1-0.3
		c-0.8-3-1.6-6-3.5-8.3c-3.7-4.4-10.5-4.9-16.5-4.9l-14.2-0.2c-2.8,2.8-5.1,6-7.3,9.1c-0.4,0.6-0.8,1.2-1.3,1.9
		c0.3,0.1,0.5,0.4,0.6,0.7c0.1,0.5-0.2,1.1-0.7,1.2c-0.4,0.1-0.9,0.2-1.3,0.3c-7,10.9-12.8,22.5-17.4,34.7l-0.5,1.4
		c-1.6,4.3-3.2,8.7-6.1,12.3C96.5,232.2,92.1,234.6,87.6,234.6z M87.5,232.6c3.9,0,7.8-2.1,10.7-5.8c2.7-3.4,4.3-7.7,5.8-11.8
		l0.5-1.4c4.3-11.4,9.7-22.4,16.2-32.8c-10.3,4.7-16.5,16.5-21.7,27.4c-1.3,2.8-2.7,5.6-4.1,8.3C92.4,221.7,89.7,227.1,87.5,232.6z
		 M135.9,164.4l12.1,0.2c6.5,0.1,13.8,0.6,18,5.6c2.2,2.6,3.1,5.9,3.9,9.1l0.1,0.3c4.6,17,11.4,33.3,20.1,48.6
		c1.2-6.4-0.5-14-5.2-23.1c-4.2-8.1-6.6-13.8-8.3-22.5c-2.7-13.9-0.6-28.6,6.1-41.5l0.4-0.7c-1.2-9.3-0.5-18.8,2.1-27.8
		c-5.4,4.4-8.5,9.6-10.6,17.3c-1.5,5.2-3,9.6-4.7,13.3c2.1,1.7,3.9,4.7,3.7,7.1c-0.1,1.4-0.9,2.4-2.2,3c-1.2,0.5-2.5,0.5-3.8,0
		c-0.9-0.4-1.9-0.8-2.8-1.2c-1.3,1.6-2.7,2.9-4.1,3.8c-3.1,1.9-6.6,2.4-10.1,2.8c-1.9,0.2-3.8,0.4-5.6,0.9
		C141.6,160.2,138.6,162.1,135.9,164.4z M6.1,205.6c-0.9,0-1.6,0.3-2.1,0.9c-0.4,0.6-0.5,1.3-0.3,2.1c0.4,1.3,1.7,2.1,3,3
		c1,0.6,2.1,1.1,3.3,1.3c10.6,1.9,14.9,1.3,17.2,0.7c9.6-2.6,12.7-6.3,16.5-12.2c1-1.5,1.8-3.1,2.6-4.7c-3.6,1.5-7.2,3.1-11.1,4.9
		c-4.6,2.2-10.6,4.3-15.9,2.4c-0.1,0-0.3,0-0.4,0.1c-1.3,0.2-2.5,0.4-3.7,0.6C12.6,205.1,9.6,205.6,6.1,205.6
		C6.2,205.6,6.1,205.6,6.1,205.6z M23,202.5c4,0.3,8.2-1.3,11.7-2.9c4.6-2.1,8.9-4,13.1-5.7c0.4-0.9,0.8-1.8,1.2-2.7
		c1.8-4.1,3.6-8.3,6.2-11.8c-4.2,1.8-8.5,3.7-12.7,5.5c-2.9,1.2-5.9,2-8.9,2.3c-0.8,1.4-1.6,2.9-2.3,4.3
		C29,195.9,26.7,200.3,23,202.5z M2.6,178c-1,2.1-0.8,5.5,0.7,7.5c1.4,1.9,2.8,3.1,4.3,4.4c1.5,1.3,3,2.7,4.5,4.7
		c2,2.7,4.3,5.7,7.5,7.1c4.7-1.2,7.1-6,9.7-11c0.6-1.1,1.1-2.2,1.7-3.3c-3.5,0.1-7.1-0.5-10.4-1.7c-4.2-1.5-7.9-3.2-11.8-4.9
		C6.9,179.9,4.8,178.9,2.6,178z M59.5,177.5c-4,3.6-6.4,9.2-8.7,14.5c-0.1,0.3-0.2,0.5-0.3,0.8c7-2.8,14.1-5.3,22.5-8.3
		c2.1-0.7,3.9-1.4,5.7-2c4.3-1.4,8-2.7,12.6-4.7c6.9-3.1,18.5-7.3,25.8-9.1c2.9-0.7,4-1.7,5-2.5c1.2-1.1,2.5-2,6-2l4.9,0.1
		c3.3-3.2,7.1-5.7,11.6-6.9c1.9-0.5,3.9-0.7,5.9-1c3.4-0.4,6.6-0.8,9.2-2.5c1.1-0.7,2.3-1.7,3.4-3c-7.2-3.9-13.5-9.6-18.1-16.4
		l-0.5-0.7c-0.1-0.2-0.3-0.4-0.4-0.6c-3-0.8-5.7-2-8-3.5c-0.7-0.5-1.4-1-2-1.4c-1.4,0.1-2.8,0.3-4.3,0.5c-5.2,0.8-7.8,0.7-10.7,0.5
		c-2.3-0.1-4.6-0.2-8.6,0c-1.5,0.1-4.2,0.5-7.2,1c-1.8,0.3-3.7,0.6-5.6,0.8c-4.4,5.9-11.1,9.6-17.6,13.1l-0.9,0.5
		c-17.4,9.5-32.8,23.3-44.4,40.2c2.3-0.4,4.6-1,6.7-1.9c4.4-1.9,8.8-3.8,13.1-5.7c1.2-0.5,2.4-1.1,3.6-1.6c3.3-2.9,6.5-5.9,9.7-8.9
		c3-2.8,6.1-5.7,9.3-8.5c6.9-6.2,15.4-12.9,25.4-16.3c13.6-4.6,23.3-3.1,28,4.3c0.4,0.6,0.9,1.5,0.9,2.5c0.1,1.3-0.6,2.7-1.7,3.7
		c-3.8,3.3-9.2,4.3-14.3,5.2c-2.1,0.4-4,0.7-5.8,1.2c-6.2,1.7-12.2,3.5-17.8,5.5C80.9,168.2,70,172.9,59.5,177.5z M116.4,141.5
		c-4.4,0-9,1.1-13.1,2.5c-9.7,3.3-18,9.9-24.7,15.9c-3.1,2.8-6.2,5.7-9.2,8.5c-1.7,1.6-3.5,3.3-5.3,4.9c8.9-3.8,18-7.6,27.2-10.7
		c5.7-1.9,11.7-3.8,17.9-5.5c1.9-0.5,3.8-0.9,6-1.3c4.9-0.9,10-1.8,13.4-4.7c0.7-0.6,1.1-1.4,1-2c0-0.6-0.4-1.1-0.6-1.6
		C126.2,143,121.5,141.5,116.4,141.5z M166.1,150.2c0.8,0.4,1.5,0.7,2.3,1c0.8,0.3,1.6,0.3,2.2,0c0.6-0.3,1-0.7,1-1.4
		c0.1-1.4-1-3.5-2.6-5C168.2,146.9,167.2,148.7,166.1,150.2z M147.1,134c4.4,6.4,10.4,11.7,17.2,15.3c1.1-1.6,2.2-3.5,3.2-5.7
		C161.3,139.3,154.3,136,147.1,134z M145.4,131.5c0.1,0,0.3,0.1,0.4,0.1c8,2,15.8,5.5,22.6,10.2c1.5-3.5,3-7.7,4.4-12.6
		c2.6-9.2,6.5-15,13.6-20.1c0.3-0.9,0.7-1.9,1-2.8l0.5-1.2c1.5-3.8,3-7.8,6.4-10.7c2.4-2,7.4-4.2,10.3-2.5c1.3,0.8,2.7,2.7,1.7,7.1
		c-0.1,0.3-0.1,0.6-0.2,0.8c8.4-2.7,17.2-4.3,25.8-5.9l0.4-0.1c2.6-0.5,5-1.5,7.2-2.9c5.9-4,7.4-5.4,6.3-12.6
		c-1-6.4-4.1-21-6.9-27.2c-1.8-4.2-3.6-3.6-4.1-3.5c-0.4,0.3-1.3,2.7-1.7,3.6c-0.2,0.5-0.3,0.9-0.4,1.1c-2.2,4.8-0.7,8.6,1,13
		c1,2.5,2,5.1,2.5,8.2c0.2,1.5,0.4,3.5-0.7,5.1c-0.8,1.2-2,1.9-3.2,2.2c0.8,3.3,1.5,7.2-1.5,8.9c-2.8,1.6-7.2,0.6-10.9-1.3
		c0.4,1.6,0.6,3.1,0.6,4.8c0,0.3-0.1,0.6-0.3,0.8c-0.2,0.2-0.5,0.3-0.8,0.3c-7.6-0.7-15-6.4-18.8-14.5c0-0.1-0.1-0.2-0.1-0.3
		c-1.2-0.2-2.3-0.4-3.4-0.6c-10.1-2.1-18-5.5-24.3-10.5c-2.7-2.2-6-6-6.3-9.7c-0.1-0.8,0-1.5,0.3-2.2c-2.3-2-4.4-4.4-6.3-6.7
		c-1.2-1.5-2.8-3.4-1.3-6.6c1.2-2.4,3.5-4.2,6.2-4.8c3.2-0.7,8.9-2.3,11.6-3.7c0.3-0.2,0.3-0.6,0.3-1.8c0-0.6-0.1-1.2,0-1.9
		c0.2-1.8-0.1-2.9-0.4-3.2c-2.4-2.1-7.7-0.9-12,0.1c-0.8,0.2-1.5,0.3-2.3,0.5c-4,0.8-6.3,1.5-12.1,4.2c-3.1,1.4-3.8,2.3-3.7,5.3
		c0,10.7,3.5,21.3,9.8,30c2.2-0.7,4.5-0.9,6.3-0.5c1.6,0.4,2.7,1.2,3.3,2.5c0.1,0.2,0.1,0.5,0,0.7c-0.6,2-2,2.7-3,2.9
		c-2.6,0.5-5.9-1.4-7.1-3c-0.1-0.1-0.1-0.1-0.2-0.2c-1.9,0.7-3.7,1.6-4.9,2.6c-3.6,2.9-4.7,7.9-5.2,12c-0.4,2.6-0.4,5.1-0.4,7.5
		c0,5.7,0,11.1-4.8,15.6c-1,1-2.1,2.8-3.1,4.5c-0.7,1.3-1.5,2.5-2.2,3.4c-2.1,2.7-3,5-2.6,7c0.2,1.2,0.9,2.4,2.1,3.6
		c2.6-0.1,5.4,0.3,7.6,2C143.7,129.2,144.6,130.3,145.4,131.5z M188,110.4c-2.8,8.6-3.9,17.7-3.2,26.7l16.5-31.6
		c0.4-0.7,0.8-1.5,1.2-2.3c-2.8,1-5.6,2.2-8.2,3.6C192,107.9,189.9,109.1,188,110.4z M74.9,102.3c0.3,1,0.6,2.1,0.8,3
		c0.9,3,1.2,4.3,1.2,4.9c0,0.6-0.1,1.2-0.2,1.8c-0.6,7.5-1.3,15.3,4.9,17.9c2.5,1,9,0.4,15.1-0.4c0.1-0.1,0.1-0.2,0.2-0.2
		c1.8-2.7,3-5.8,4.2-8.9l0.4-1c1.2-3,2.5-6.1,3.9-9.1c-0.9-3.5,0.5-7.6,1.6-11.1c0.5-1.6,0.4-6-0.2-7.4c-0.5-1.3-2.2-1.9-3.6-2.4
		c-5.5-1.7-12.8-1-19.2-0.5c-1.6,0.1-3.2,0.3-4.6,0.4c-2,0.1-3.7,0.7-5.1,1.7c-1.7,1.2-2.5,2.7-2.4,4.3c0.1,1,0.5,2,1.1,2.9
		c1.7-4,5.9-4.5,10.2-5.1c1.6-0.2,3.3-0.4,4.9-0.8c5-1.2,10.1-0.4,14.9,0.5c0.5,0.1,0.8,0.5,0.8,1c0,4.8-4.1,8.4-8,9.7
		c-4.1,1.4-8.6,1-12.5,0.7C80.7,103.9,77.6,103.7,74.9,102.3z M137.9,128.5c1.2,0.7,2.5,1.3,3.9,1.9c-0.2-0.2-0.4-0.3-0.6-0.5
		C140.3,129.2,139.2,128.7,137.9,128.5z M107.5,110.4c0.4,0.9,0.9,1.7,1.8,2.5c2.4,2,5.9,2.6,9,1.6c2.6-0.8,4.3-2.6,5-5
		c0.6-2.4,0.3-4.7-0.9-6.3c-1.1-1.5-3-2.3-5.1-2.2C113.6,100.9,110.3,104.1,107.5,110.4C107.5,110.4,107.5,110.4,107.5,110.4z
		 M201.9,93.2c-1.9,0-4.6,1.2-6.4,2.7c-3,2.6-4.4,6.3-5.8,9.9l-0.5,1.2c0,0.1-0.1,0.2-0.1,0.3c1.3-0.8,2.8-1.6,4.3-2.4
		c3.3-1.7,6.7-3.1,10.2-4.3c0.3-0.7,0.5-1.4,0.6-2.1c0.4-1.8,0.6-4.2-0.8-5C203.1,93.3,202.6,93.2,201.9,93.2z M74.6,99.8
		c0.3,0.2,0.5,0.4,0.8,0.5c2.4,1.4,5.5,1.6,8.2,1.9c3.7,0.3,8,0.7,11.7-0.6c2.9-1,6.1-3.6,6.6-7c-4.3-0.8-8.9-1.4-13.2-0.3
		c-1.7,0.4-3.5,0.6-5.1,0.8C78.6,95.8,75.6,96.3,74.6,99.8z M202.9,79.7c3.4,6.6,9.3,11.2,15.5,12.3c-0.2-1.7-0.5-3.4-1-5.1
		c-1.4-0.9-2.6-1.9-3.3-2.8c-1-1.2-1.9-2.4-2.8-3.6C208.5,80.3,205.6,80.1,202.9,79.7z M219,85.7c3.6,2.2,8.3,3.6,10.7,2.3
		c1.7-1,1.2-4,0.5-6.8c-1,0.1-1.8,0-2.4,0c-2.1-0.1-4.3-0.2-6.4-0.2c-1.4,0-2.9-0.1-4.3-0.1C217.8,82.4,218.5,84,219,85.7z
		 M213.8,80.7c0.5,0.7,1.1,1.5,1.7,2.2c0.2,0.2,0.3,0.4,0.5,0.6c-0.4-0.9-0.8-1.8-1.2-2.7C214.5,80.7,214.2,80.7,213.8,80.7z
		 M216.2,78.8c1.8,0.1,3.5,0.1,5.3,0.2c2.1,0.1,4.3,0.1,6.4,0.2c0.6,0,1.2,0,1.9,0c-0.1-0.4-0.2-0.8-0.3-1.2c-0.4-2.1-1.2-4.1-2-6.1
		c-0.5-1.4-1.1-2.8-1.5-4.2c-2.3-7.5-0.9-16.2,3.7-22.7c1.4-2,3-3.8,4.7-5.5c3.3-3.6,6.5-7,7.1-11.5c1.3-8.8-2.6-18.6-9.3-23.4
		c-1.5-1.1-8.4-3.2-13-2.3c-1.7,0.3-2.9,1-3.6,2c-0.8,1.2,0.9,3.5,2.3,5.5c1.2,1.7,2.3,3.3,2.6,4.8c1.9,8.9-1.4,17.7-4.7,26.2
		c-3,7.9-6.1,16.1-4.8,24.2c0.7,4.3,2.6,8.4,4.5,12.4C215.8,77.9,216,78.3,216.2,78.8z M201.9,77.6c2.7,0.4,5.4,0.7,8.1,0.8
		c-6.1-10.5-7.5-24-3.3-36.6c1-2.9,2.3-5.6,3.7-8.3c2.1-4.1,4-8,4.5-12.5c0.4-4,0.2-10.8-6.2-12c-0.1,0-0.3,0-0.4-0.1
		c1.4,1.9,2.4,4.1,2.8,6.3c0.6,3.9-1.1,8.7-2.7,12.6c-0.6,1.4-1.2,2.7-1.7,4c-3.5,8.1-6.5,15.1-7.2,24.1
		C198.6,64.9,199.5,71.8,201.9,77.6z M168.5,57.8c0,0.2,0,0.5,0,0.7c0.2,2.8,3,6.2,5.5,8.2c6,4.7,13.7,8,23.4,10.1
		c0.7,0.1,1.4,0.3,2.1,0.4c-2.2-5.8-2.9-12.7-2.3-21.3c0.7-9.4,3.8-16.5,7.3-24.8c0.6-1.3,1.1-2.6,1.7-4c1.5-3.6,3.2-8.1,2.6-11.4
		c-0.4-2.4-1.6-4.8-3.4-6.7c-3.3,0.4-6.4,2.1-8,4.7c-0.7,1.1-7.5,10.9-9.9,12.9c0.6,0.6,2.6,1.5,4.6,2.1c0.5,0.1,0.8,0.6,0.7,1.2
		c-0.1,0.5-0.5,0.8-1,0.8c-0.1,0.2-0.2,0.6-0.2,0.8c-0.2,0.8-0.4,1.9-1.2,2.5c-0.9,0.7-1.2,1.2-1.4,1.4c0.4,0.2,1.1,0.3,1.7,0.4
		c1.6,0.3,3.5,0.7,4.2,2c0.4,0.8,0.4,1.7,0,2.7c-0.1,0.4-0.5,0.6-0.8,0.6l-5.3,0.5c2.3,3.6,2.6,8.3,0.9,12.3
		c-2,4.5-6.7,7.5-11.7,7.5c0,0,0,0,0,0C174.5,61.3,171.3,59.9,168.5,57.8z M157.9,69.4c1.1,1,3.3,2.2,4.8,1.9c0.4-0.1,1-0.3,1.4-1.1
		c-0.3-0.5-0.9-0.9-1.7-1C161.2,68.9,159.6,69,157.9,69.4z M169.3,55.8c2.6,2.1,5.6,3.4,8.8,3.4c0,0,0,0,0,0c4.1,0,8.2-2.6,9.9-6.4
		s1-8.5-1.7-11.6c-0.2-0.3-0.3-0.7-0.2-1c0.1-0.3,0.5-0.6,0.8-0.6l6.4-0.5c0-0.2,0-0.3-0.1-0.4c-0.3-0.6-1.8-0.8-2.8-1
		c-1.5-0.3-3-0.6-3.3-1.8c-0.3-1.2,0.9-2.4,2.1-3.5c0.3-0.2,0.4-0.9,0.5-1.4c0.1-0.3,0.1-0.7,0.3-1c-2-0.7-4.2-1.8-4.5-3.2
		c-0.1-0.4-0.1-1.1,0.8-1.8c1.9-1.5,8.5-10.8,9.5-12.4c1.7-2.6,4.6-4.5,7.8-5.3c-0.4-0.3-0.8-0.5-1.2-0.8C200,5.1,196,4,190.9,6
		c-6.3,2.6-8.3,13.6-8.8,19.9c-0.1,1.7-0.2,3.4-0.3,5.1c-0.3,6.1-0.5,12.5-4.4,17.3c-1.3,1.6-2.9,2.9-4.4,4.1
		c-1.2,0.9-2.3,1.8-3.3,2.9C169.5,55.5,169.4,55.7,169.3,55.8z"/>
	<path class="st0" d="M95.7,77.3c1.9-0.1,3.9-0.4,5.2-1.8c0.9-1,1.2-2.4,1.4-3.7c0.3-1.8,0.7-3.6,0.9-5.5c-4.4-0.5-8.4,2.1-11.9,4.9
		c-2.1,1.7-8.2,4.7-10.2,6.4C83.6,79.8,92.6,77.5,95.7,77.3z"/>
	<path class="st0" d="M114.1,111.8c-0.1,0-0.2,0-0.2,0c-1.5-0.1-2.8-0.8-3.6-2c-1.3-2-1-4.8,0.7-6.8c0.3-0.4,0.8-0.5,1.2-0.2
		c0.2-0.5,0.8-0.7,1.3-0.5c1.7,0.8,3,1.8,3.7,3c1,1.7,0.9,3.8-0.2,5.1C116.4,111.4,115.3,111.8,114.1,111.8z M112.7,104.1
		c0,0.1-0.1,0.1-0.1,0.2c-1.1,1.3-1.4,3.2-0.6,4.4c0.4,0.6,1.2,1,2,1.1c0.7,0,1.2-0.2,1.6-0.6c0.6-0.8,0.5-2,0-2.8
		C115,105.5,114.1,104.8,112.7,104.1C112.7,104.2,112.7,104.1,112.7,104.1z"/>
</g>
</svg>
